<svg xmlns="http://www.w3.org/2000/svg"
	viewBox="0 0 512 512">

  <path fill="#E34F26" d="M71,460 L30,0 481,0 440,460 255,512"/>
  <path fill="#FFF" d="M256,208 L181,208 176,150 256,150 256,94 255,94 114,94 115,109 129,265 256,265zM256,355 L255,355 192,338 188,293 158,293 132,293 139,382 255,414 256,414z"/>
  <path fill="#FFF" d="M255,208 L255,265 325,265 318,338 255,355 255,414 371,382 372,372 385,223 387,208 371,208zM255,94 L255,129 255,150 255,150 392,150 392,150 392,150 393,138 396,109 397,94z"/>
  <path
     style="fill:#333333;stroke:#ffffff;stroke-width:18.55072403;stroke-linejoin:bevel;stroke-miterlimit:4;stroke-dasharray:none;stroke-opacity:1"
     d="m 358.87644,262.25841 0,92.75362 -92.75362,0 0,51.94203 92.75362,0 0,92.75363 51.94202,0 0,-92.75363 92.75364,0 0,-51.94203 -92.75364,0 0,-92.75362 -51.94202,0 z"
     />
</svg>
