<svg xmlns="http://www.w3.org/2000/svg" width="16" height="16" viewBox="0 0 512 512" fill="#FFF" fill-opacity="1">

  <path
     d="M 1.2851562 0.28515625 L 2.5078125 14.175781 L 7.9921875 15.714844 L 13.490234 14.175781 L 14.714844 0.28515625 L 1.2851562 0.28515625 z M 2.5039062 1.3867188 L 13.496094 1.3867188 L 12.443359 13.322266 L 7.9921875 14.568359 L 3.5566406 13.322266 L 2.5039062 1.3867188 z "
     transform="scale(32)" />
  <path
     d="m 121.05264,99.707237 4.69391,54.899893 h 260.06471 l 4.71054,-54.757817 z" />
  <rect
     width="55.958164"
     height="282.14551"
     x="228.02016"
     y="123.91863" />

</svg>